…
``` r
age_and_height <- vancouver_trees %>%
  # Calling difftime() function
  mutate(tree_age = round(as.numeric(difftime("2021-10-01", date_planted, units="days"))/365,4)) %>%
  select(species_name,diameter, tree_age, root_barrier)

print(age_and_height)
```

    ## # A tibble: 146,611 x 4
    ##    species_name diameter tree_age root_barrier
    ##    <chr>           <dbl>    <dbl> <chr>       
    ##  1 AMERICANA        10       22.7 N           
    ##  2 SERRATA          10       25.4 N           
    ##  3 JAPONICA          4       27.9 N           
    ##  4 AMERICANA        18       25.4 N           
    ##  5 CAMPESTRE         9       27.8 N           
    ##  6 CALLERYANA        5       NA   N           
    ##  7 PLATANOIDES      15       27.8 N           
    ##  8 PLATANOIDES      14       27.8 N           
    ##  9 PLATANOIDES      16       27.8 N           
    ## 10 AMERICANA         7.5     27.8 N           
    ## # ... with 146,601 more rows
…
