…
``` r
tree_neighbourhood<-vancouver_trees %>%
  group_by(neighbourhood_name, plant_year = year(date_planted)) %>%
  summarise(number_of_trees = n()) %>%
  drop_na()
```

    ## `summarise()` has grouped output by 'neighbourhood_name'. You can override using the `.groups` argument.

``` r
print(tree_neighbourhood)
```

    ## # A tibble: 671 x 3
    ## # Groups:   neighbourhood_name [22]
    ##    neighbourhood_name plant_year number_of_trees
    ##    <chr>                   <dbl>           <int>
    ##  1 ARBUTUS-RIDGE            1989              41
    ##  2 ARBUTUS-RIDGE            1990              76
    ##  3 ARBUTUS-RIDGE            1991              16
    ##  4 ARBUTUS-RIDGE            1992              81
    ##  5 ARBUTUS-RIDGE            1993              18
    ##  6 ARBUTUS-RIDGE            1994              58
    ##  7 ARBUTUS-RIDGE            1995             151
    ##  8 ARBUTUS-RIDGE            1996              95
    ##  9 ARBUTUS-RIDGE            1997              61
    ## 10 ARBUTUS-RIDGE            1998              59
    ## # ... with 661 more rows
…
    ## `summarise()` has grouped output by 'neighbourhood_name'. You can override using the `.groups` argument.

``` r
print(height_sub)
```

    ## # A tibble: 693 x 7
    ## # Groups:   neighbourhood_name [22]
    ##    neighbourhood_na~ age_of_tree height_mean height_min height_max height_median
    ##    <chr>                   <dbl>       <dbl>      <dbl>      <dbl>         <dbl>
    ##  1 ARBUTUS-RIDGE               2        1             1          1             1
    ##  2 DOWNTOWN                    2        1.15          1          2             1
    ##  3 DUNBAR-SOUTHLANDS           2        1             1          1             1
    ##  4 FAIRVIEW                    2        1             1          1             1
    ##  5 GRANDVIEW-WOODLA~           2        1.05          1          3             1
    ##  6 HASTINGS-SUNRISE            2        1.03          1          2             1
    ##  7 KENSINGTON-CEDAR~           2        1             1          1             1
    ##  8 KERRISDALE                  2        1             1          1             1
    ##  9 KILLARNEY                   2        1             1          1             1
    ## 10 KITSILANO                   2        1.01          0          2             1
    ## # ... with 683 more rows, and 1 more variable: height_sd <dbl>
…
``` r
tree_diameter <- vancouver_trees %>%
  select(diameter, species_name) %>%
  group_by(species_name) %>%
  summarise(diameter_mean=mean(diameter, na.rm=TRUE), diameter_min=min(diameter, na.rm=TRUE), diameter_max=max(diameter, na.rm=TRUE), diameter_median=median(diameter, na.rm=TRUE), diameter_sd=sd(diameter, na.rm=TRUE), number_of_trees=n()) %>%
  arrange(across(diameter_mean))
print(tree_diameter)
```

    ## # A tibble: 283 x 7
    ##    species_name  diameter_mean diameter_min diameter_max diameter_median
    ##    <chr>                 <dbl>        <dbl>        <dbl>           <dbl>
    ##  1 OFFICIANALIS           2.78         2            5               3   
    ##  2 LAEVIS                 2.92         1.5          5               2.62
    ##  3 GRANDIFLORA X          2.98         0            4               3   
    ##  4 ARBOREUM               3            1.75         4.25            3   
    ##  5 ARMENIACA              3            3            3               3   
    ##  6 CAPITATA               3            3            3               3   
    ##  7 COCOMILIA              3            3            3               3   
    ##  8 CYLINDRICA             3            3            3               3   
    ##  9 ELLIPSOIDALIS          3            3            3               3   
    ## 10 KOREANA                3            3            3               3   
    ## # ... with 273 more rows, and 2 more variables: diameter_sd <dbl>,
    ## #   number_of_trees <int>
…
    ## `summarise()` has grouped output by 'neighbourhood_name'. You can override using the `.groups` argument.

    ## # A tibble: 132 x 8
    ## # Groups:   neighbourhood_name [22]
    ##    neighbourhood_name       age_range diameter_mean diameter_min diameter_max
    ##    <chr>                    <chr>             <dbl>        <dbl>        <dbl>
    ##  1 ARBUTUS-RIDGE            0 to 6             3.06            2         5.25
    ##  2 DOWNTOWN                 0 to 6             3.25            3        14   
    ##  3 DUNBAR-SOUTHLANDS        0 to 6             3.20            3        24   
    ##  4 FAIRVIEW                 0 to 6             3.14            3        10   
    ##  5 GRANDVIEW-WOODLAND       0 to 6             3.10            3         7.5 
    ##  6 HASTINGS-SUNRISE         0 to 6             3.07            3        10.5 
    ##  7 KENSINGTON-CEDAR COTTAGE 0 to 6             3.07            2        14   
    ##  8 KERRISDALE               0 to 6             3.04            0        10.5 
    ##  9 KILLARNEY                0 to 6             3.09            3        22.5 
    ## 10 KITSILANO                0 to 6             3.16            0        18   
    ## # ... with 122 more rows, and 3 more variables: diameter_median <dbl>,
    ## #   diameter_sd <dbl>, n <int>
…
### 2.1 Tidy or Untidy?

I selected the following 8 columns and store them in to the tibble named
vancouver\_trees\_sub. I will use this tibble for later tasks.

``` r
vancouver_trees_sub <- vancouver_trees %>%
  select(genus_name,species_name,cultivar_name,common_name,neighbourhood_name,height_range_id, diameter,date_planted)
print(vancouver_trees_sub)
```

    ## # A tibble: 146,611 x 8
    ##    genus_name species_name cultivar_name   common_name           neighbourhood_n~
    ##    <chr>      <chr>        <chr>           <chr>                 <chr>           
    ##  1 ULMUS      AMERICANA    BRANDON         BRANDON ELM           MARPOLE         
    ##  2 ZELKOVA    SERRATA      <NA>            JAPANESE ZELKOVA      MARPOLE         
    ##  3 STYRAX     JAPONICA     <NA>            JAPANESE SNOWBELL     KENSINGTON-CEDA~
    ##  4 FRAXINUS   AMERICANA    AUTUMN APPLAUSE AUTUMN APPLAUSE ASH   KENSINGTON-CEDA~
    ##  5 ACER       CAMPESTRE    <NA>            HEDGE MAPLE           KENSINGTON-CEDA~
    ##  6 PYRUS      CALLERYANA   CHANTICLEER     CHANTICLEER PEAR      MARPOLE         
    ##  7 ACER       PLATANOIDES  COLUMNARE       COLUMNAR NORWAY MAPLE KENSINGTON-CEDA~
    ##  8 ACER       PLATANOIDES  COLUMNARE       COLUMNAR NORWAY MAPLE KENSINGTON-CEDA~
    ##  9 ACER       PLATANOIDES  COLUMNARE       COLUMNAR NORWAY MAPLE KENSINGTON-CEDA~
    ## 10 FRAXINUS   AMERICANA    AUTUMN APPLAUSE AUTUMN APPLAUSE ASH   KENSINGTON-CEDA~
    ## # ... with 146,601 more rows, and 3 more variables: height_range_id <dbl>,
    ## #   diameter <dbl>, date_planted <date>
…
I am going to untidy it by using the pivot\_longer() to combine the
columns(genus\_name, species\_name,cultivar\_name, common\_name)
together. This is untidy because for my research question, I am
analyzing the relationship of diameter with respect to species. If these
columns are combined, I will need to use pivot\_wider to tidy it first
to do the analysis.

``` r
vancouver_trees_sub1 <- vancouver_trees_sub %>%
  pivot_longer(cols = c("genus_name":"common_name"), 
              names_to = "name_class", values_to = "name_of_tree")
print(vancouver_trees_sub1)
```

    ## # A tibble: 586,444 x 6
    ##    neighbourhood_name       height_range_id diameter date_planted name_class   
    ##    <chr>                              <dbl>    <dbl> <date>       <chr>        
    ##  1 MARPOLE                                2       10 1999-01-13   genus_name   
    ##  2 MARPOLE                                2       10 1999-01-13   species_name 
    ##  3 MARPOLE                                2       10 1999-01-13   cultivar_name
    ##  4 MARPOLE                                2       10 1999-01-13   common_name  
    ##  5 MARPOLE                                4       10 1996-05-31   genus_name   
    ##  6 MARPOLE                                4       10 1996-05-31   species_name 
    ##  7 MARPOLE                                4       10 1996-05-31   cultivar_name
    ##  8 MARPOLE                                4       10 1996-05-31   common_name  
    ##  9 KENSINGTON-CEDAR COTTAGE               3        4 1993-11-22   genus_name   
    ## 10 KENSINGTON-CEDAR COTTAGE               3        4 1993-11-22   species_name 
    ## # ... with 586,434 more rows, and 1 more variable: name_of_tree <chr>
…
    ## Warning: Values are not uniquely identified; output will contain list-cols.
    ## * Use `values_fn = list` to suppress this warning.
    ## * Use `values_fn = length` to identify where the duplicates arise
    ## * Use `values_fn = {summary_fun}` to summarise duplicates

    ## Warning: `cols` is now required when using unnest().
    ## Please use `cols = c(genus_name, species_name, cultivar_name, common_name)`

``` r
print(vancouver_trees_sub2)
```

    ## # A tibble: 146,611 x 8
    ##    neighbourhood_name       height_range_id diameter date_planted genus_name
    ##    <chr>                              <dbl>    <dbl> <date>       <chr>     
    ##  1 MARPOLE                                2       10 1999-01-13   ULMUS     
    ##  2 MARPOLE                                2       10 1999-01-13   ULMUS     
    ##  3 MARPOLE                                4       10 1996-05-31   ZELKOVA   
    ##  4 KENSINGTON-CEDAR COTTAGE               3        4 1993-11-22   STYRAX    
    ##  5 KENSINGTON-CEDAR COTTAGE               4       18 1996-04-29   FRAXINUS  
    ##  6 KENSINGTON-CEDAR COTTAGE               2        9 1993-12-17   ACER      
    ##  7 MARPOLE                                2        5 NA           PYRUS     
    ##  8 MARPOLE                                2        5 NA           CARPINUS  
    ##  9 MARPOLE                                2        5 NA           PRUNUS    
    ## 10 MARPOLE                                2        5 NA           RHUS      
    ## # ... with 146,601 more rows, and 3 more variables: species_name <chr>,
    ## #   cultivar_name <chr>, common_name <chr>
…
vancouver_trees %>%
  select(species_name,  diameter, date_planted, neighbourhood_name) %>%
  filter(species_name == "AMERICANA" | neighbourhood_name == "KERRISDALE") %>%
  drop_na() %>%
  mutate(age_of_tree = round(as.numeric((ymd(20211004) - ymd(date_planted))/365),digits=2)) %>%
  mutate(plant_month = month(date_planted)) %>%
  mutate(plant_season = case_when(plant_month < 3 ~ "Winter",
                                  plant_month < 6 ~ "Spring",
                                  plant_month < 9 ~ "Summer",
                                  plant_month < 12 ~ "Fall",
                                  TRUE ~ "Winter")) %>%
  select(-date_planted)
```

    ## # A tibble: 5,204 x 6
    ##    species_name diameter neighbourhood_name age_of_tree plant_month plant_season
    ##    <chr>           <dbl> <chr>                    <dbl>       <dbl> <chr>       
    ##  1 AMERICANA       10    MARPOLE                   22.7           1 Winter      
    ##  2 AMERICANA       18    KENSINGTON-CEDAR ~        25.4           4 Spring      
    ##  3 AMERICANA        7.5  KENSINGTON-CEDAR ~        27.8          12 Winter      
    ##  4 AMERICANA       14.5  KITSILANO                 21.7           1 Winter      
    ##  5 KOUSA            3    KERRISDALE                24.7           1 Winter      
    ##  6 AMERICANA       12    KENSINGTON-CEDAR ~        26.6           3 Spring      
    ##  7 AMERICANA       13    KENSINGTON-CEDAR ~        27.4           4 Spring      
    ##  8 TRUNCATUM        3    KERRISDALE                24.8           1 Winter      
    ##  9 AMERICANA        9    RILEY PARK                25.7           2 Winter      
    ## 10 AMERICANA        3.25 RILEY PARK                25.7           2 Winter      
    ## # ... with 5,194 more rows
