…
print(tree_age_range)
```

    ## # A tibble: 70,063 x 6
    ##    neighbourhood_name       date_planted diameter time_diff age_of_tree age_range
    ##    <chr>                    <date>          <dbl> <drtn>          <dbl> <chr>    
    ##  1 MARPOLE                  1999-01-13      10     8300 da~        22.7 21 to 26 
    ##  2 MARPOLE                  1996-05-31      10     9257 da~        25.4 21 to 26 
    ##  3 KENSINGTON-CEDAR COTTAGE 1993-11-22       4    10178 da~        27.9 26+      
    ##  4 KENSINGTON-CEDAR COTTAGE 1996-04-29      18     9289 da~        25.4 21 to 26 
    ##  5 KENSINGTON-CEDAR COTTAGE 1993-12-17       9    10153 da~        27.8 26+      
    ##  6 KENSINGTON-CEDAR COTTAGE 1993-12-16      15    10154 da~        27.8 26+      
    ##  7 KENSINGTON-CEDAR COTTAGE 1993-12-16      14    10154 da~        27.8 26+      
    ##  8 KENSINGTON-CEDAR COTTAGE 1993-12-16      16    10154 da~        27.8 26+      
    ##  9 KENSINGTON-CEDAR COTTAGE 1993-12-03       7.5  10167 da~        27.8 26+      
    ## 10 KENSINGTON-CEDAR COTTAGE 1993-12-03       7.75 10167 da~        27.8 26+      
    ## # ... with 70,053 more rows
…
## 2.2 Create tibble with preictions and residual

I am going to produce a new tibble named model2\_fit which includes the
predictions on diameter and the residual using the model2 I fitted
previously using broom::augment().

``` r
model2_fit<- broom::augment(model2) %>% 
  rename(prediction_of_diameter = .fitted, residule = .resid) %>%
  select(diameter, age_of_tree, prediction_of_diameter, residule)

print(model2_fit)
```

    ## # A tibble: 2,238 x 4
    ##    diameter age_of_tree prediction_of_diameter residule
    ##       <dbl>       <dbl>                  <dbl>    <dbl>
    ##  1    10           22.7                   7.70    2.30 
    ##  2     7.5         27.8                   9.62   -2.12 
    ##  3    14.5         21.7                   7.32    7.18 
    ##  4    12           26.6                   9.13    2.87 
    ##  5    13           27.4                   9.47    3.53 
    ##  6     9           25.7                   8.80    0.198
    ##  7     3.25        25.7                   8.80   -5.55 
    ##  8     7           26.9                   9.28   -2.28 
    ##  9     7           26.9                   9.28   -2.28 
    ## 10     7           26.9                   9.28   -2.28 
    ## # ... with 2,228 more rows
…
